Exploring the BRFSS data
…
It worked, we no longer have any missing data associated with either variable.

We can take a look at proportions of those who report good health vs.fair/poor health by state using dplyr:

reg_health_dat %>%
  group_by(X_state, X_rfhlth) %>%
  summarise(n=n()) %>%
  mutate(freq = n/sum(n))

## `summarise()` has grouped output by 'X_state'. You can override using the `.groups` argument.

## # A tibble: 106 x 4
## # Groups:   X_state [53]
##    X_state    X_rfhlth                  n  freq
##    <fct>      <fct>                 <int> <dbl>
##  1 Alabama    Good or Better Health  4595 0.717
##  2 Alabama    Fair or Poor Health    1812 0.283
##  3 Alaska     Good or Better Health  3775 0.846
##  4 Alaska     Fair or Poor Health     686 0.154
##  5 Arizona    Good or Better Health  3300 0.793
##  6 Arizona    Fair or Poor Health     860 0.207
##  7 Arkansas   Good or Better Health  3735 0.724
##  8 Arkansas   Fair or Poor Health    1426 0.276
##  9 California Good or Better Health  9248 0.810
## 10 California Fair or Poor Health    2174 0.190
## #  with 96 more rows
…
